2002/07/28/big/img_416
5
346 87 40 40 0.128881300145
274 27 80 80 0.606216599297
27 37 101 101 0.121524311704
69 43 92 92 0.332514903095
167 296 54 54 -0.000935142909293
2002/08/07/big/img_1393
1
151 174 99 99 -0.0888276971498
2002/08/26/big/img_292
1
37 97 208 208 0.434741996249
2002/08/26/big/img_301
1
34 89 241 241 0.407668704944
2003/01/13/big/img_195
1
121 36 134 134 0.313899150857
2002/07/26/big/img_532
4
136 53 82 82 0.472513004355
202 94 78 78 0.359035054335
189 215 24 24 -0.0198132459627
396 309 29 29 -0.111720244755
2002/08/20/big/img_550
1
137 103 170 170 0.154966758142
2002/08/05/big/img_3658
2
165 56 90 90 0.244027649911
80 154 81 81 0.214183503258
2002/08/26/big/img_738
2
105 134 66 66 0.129748703397
137 301 94 94 0.360509854992
2002/09/02/big/img_15750
1
98 76 218 218 0.464386259118
2003/01/17/big/img_451
1
253 47 144 144 0.40566815213
2002/07/23/big/img_339
1
96 30 151 151 0.431453698184
2002/08/16/big/img_637
2
182 45 105 105 0.317313559129
140 41 122 122 0.249281704501
2002/08/14/big/img_748
2
126 40 72 72 0.463247704596
242 35 78 78 0.324023008763
2002/08/06/big/img_2739
3
245 59 52 52 0.122487902266
307 64 70 70 0.246356953014
117 73 85 85 0.428739607992
2002/07/25/big/img_482
6
138 98 76 76 0.199027850988
172 232 54 54 0.145563103908
30 285 84 84 0.298032449916
308 338 54 54 0.108797354982
358 300 81 81 0.407032206174
59 280 90 90 0.0163644044864
2002/08/19/big/img_191
3
110 32 66 66 0.396640305207
219 73 75 75 0.37284331086
30 276 49 49 -0.0868437521305
2002/08/26/big/img_537
3
41 27 83 83 0.507741699304
173 75 84 84 0.583704454411
321 153 79 79 0.440335351366
2003/01/15/big/img_716
1
75 77 195 195 0.395400703824
2003/01/15/big/img_767
1
66 65 150 150 0.523715750192
2002/08/02/big/img_452
4
271 66 112 112 0.2577565024
68 76 89 89 0.285421604756
87 163 54 54 0.0686525529047
334 188 60 60 0.117263252524
2002/08/08/big/img_1011
3
124 50 67 67 0.359245199055
206 103 54 54 0.207321055274
208 143 54 54 -0.0483680482575
2002/08/10/big/img_144
4
200 51 59 59 0.34599385465
130 18 81 81 0.160570610708
84 58 71 71 0.131502057376
12 345 54 54 -0.0323124973482
2003/01/14/big/img_122
1
227 146 102 102 0.357208604887
2002/07/24/big/img_586
1
113 114 137 137 0.286383153169
2002/07/24/big/img_762
1
80 75 132 132 0.423098350104
2002/08/20/big/img_369
2
83 62 160 160 0.404815600961
104 188 122 122 -0.106172296737
2002/07/30/big/img_146
1
70 93 155 155 0.435600648573
2002/08/23/big/img_396
1
229 60 188 188 0.420262250587
2003/01/15/big/img_200
1
135 37 108 108 0.426565755435
2002/08/15/big/img_1183
5
366 24 71 71 0.215996601916
170 43 84 84 0.170322752881
82 113 66 66 -0.0518579929165
7 93 85 85 0.202500696175
55 65 72 72 0.196079099245
2003/01/14/big/img_698
1
84 28 94 94 0.500217905975
2002/08/09/big/img_792
5
237 26 106 106 0.369535153205
105 107 93 93 0.233542351329
254 140 64 64 0.244274994047
124 166 90 90 0.0523410543421
22 251 26 26 0.053940806046
2002/08/06/big/img_2347
2
364 97 54 54 -0.034625194929
217 62 100 100 0.270210553668
2002/07/31/big/img_911
1
189 49 162 162 0.367273255246
2002/08/26/big/img_722
1
204 83 127 127 0.4190472088
2002/08/23/big/img_621
1
124 65 96 96 0.278568052952
2002/08/05/big/img_3790
1
137 85 180 180 0.405831303561
2003/01/13/big/img_633
1
129 14 99 99 0.317999853051
2002/08/09/big/img_224
0
2002/07/24/big/img_454
1
175 62 141 141 0.646069604656
2002/07/21/big/img_202
1
105 130 140 140 0.0338997042476
2002/08/02/big/img_630
2
70 35 91 91 0.520906303576
268 146 92 92 0.365678901933
2002/08/30/big/img_18315
1
42 85 202 202 0.265268053691
2002/07/19/big/img_491
1
37 102 200 200 0.318675605702
2002/09/01/big/img_16456
1
99 62 139 139 0.478871002802
2002/08/09/big/img_242
1
204 34 209 209 0.147766608265
2002/07/25/big/img_595
1
157 42 145 145 0.193547756405
2002/07/22/big/img_522
3
149 106 36 36 0.193758552865
148 96 54 54 -0.126309000942
61 194 66 66 -0.104371996122
2002/08/01/big/img_1593
1
106 84 121 121 0.239802301532
2002/07/29/big/img_336
1
47 73 236 236 0.325125849454
2002/08/15/big/img_448
3
6 20 141 141 0.262789554088
161 111 110 110 -0.0844419366622
172 223 87 87 0.075762201121
2002/08/28/big/img_19281
1
84 119 122 122 0.156797405644
2002/07/29/big/img_342
5
54 17 60 60 0.0463577027229
139 43 83 83 0.373250154997
363 43 71 71 0.327419901598
62 41 66 66 -0.0359768005757
0 144 81 81 -0.0565532954439
2002/08/12/big/img_78
7
230 16 52 52 0.280475902135
101 26 54 54 0.173994002849
337 11 70 70 0.315079403817
207 175 59 59 0.354199253485
71 186 72 72 0.301450405395
67 344 51 51 0.202919002282
179 359 62 62 0.355185893862
2003/01/14/big/img_525
3
120 34 78 78 0.0971099519025
292 60 68 68 0.249875354834
44 156 36 36 0.188734002921
2002/07/28/big/img_147
1
105 47 116 116 0.457949701717
2002/08/11/big/img_353
1
127 47 81 81 0.208299753928
2002/08/22/big/img_513
1
89 75 253 253 0.372188355433
2002/08/04/big/img_721
2
59 57 74 74 0.341869253531
292 69 75 75 0.405114260636
2002/08/17/big/img_247
2
65 4 54 54 0.0415115045005
93 50 120 120 0.235945006
2003/01/14/big/img_891
2
79 62 206 206 0.186208052107
11 171 165 165 0.210479853104
2002/08/20/big/img_853
2
311 128 65 65 0.328504155771
122 117 82 82 0.432699905671
2002/07/19/big/img_414
4
55 81 54 54 -0.0244257044862
149 85 98 98 0.291743804267
120 186 65 65 0.194409807603
121 202 80 80 0.10841759968
2002/08/01/big/img_1530
1
93 86 163 163 0.245216510835
2003/01/14/big/img_924
1
55 63 196 196 0.434579503766
2002/08/22/big/img_468
4
343 55 104 104 0.314373153387
147 61 129 129 0.338432208411
185 222 26 26 0.266960299746
190 232 26 26 0.0183012557885
2002/08/18/big/img_354
1
78 284 68 68 0.291851853972
2002/08/30/big/img_18193
1
85 58 111 111 0.372643946737
2002/08/23/big/img_492
1
90 132 105 105 0.534677602522
2002/08/15/big/img_871
4
250 56 54 54 0.373717998652
46 78 34 34 0.231283957729
333 87 38 38 0.282336647934
148 52 78 78 0.410725302235
2002/08/12/big/img_494
1
45 45 217 217 0.264391600908
2002/08/06/big/img_2470
4
93 90 29 29 0.180615997929
75 278 24 24 0.077687649263
75 50 110 110 0.013391550837
138 300 66 66 0.101820249783
2002/07/23/big/img_923
1
60 78 221 221 0.41771255795
2002/08/26/big/img_155
2
144 46 105 105 0.461196101163
168 156 73 73 0.187840896033
2002/08/08/big/img_669
1
42 46 87 87 0.395036006178
2002/07/23/big/img_404
2
177 40 177 177 0.149334404556
76 89 123 123 0.355784255307
2002/08/28/big/img_19421
1
91 96 184 184 0.3512183535
2002/08/29/big/img_18993
2
194 167 58 58 0.284002505112
152 198 54 54 -0.00630979810667
2002/08/25/big/img_416
1
58 101 131 131 0.397181304632
2003/01/17/big/img_434
1
89 24 99 99 0.354819102513
2002/07/29/big/img_1370
1
73 49 126 126 0.135049858698
2002/07/28/big/img_483
3
93 70 69 69 0.18221635365
78 3 149 149 0.188541752621
217 101 79 79 0.361191754913
2002/08/11/big/img_50
5
156 53 93 93 0.317870657294
250 48 144 144 0.270934249819
392 111 36 36 0.0446437481296
18 82 54 54 0.111494251658
46 89 98 98 0.349389003994
2002/08/10/big/img_404
2
7 97 224 224 0.145865505628
14 196 224 224 0.00661910359922
2002/09/02/big/img_15057
1
199 25 88 88 0.322328850659
2003/01/14/big/img_911
1
36 62 213 213 0.44950265096
2002/09/01/big/img_16697
1
75 76 149 149 -0.0660727001348
2003/01/16/big/img_665
1
182 118 60 60 0.205390899858
2002/09/01/big/img_16708
1
121 267 89 89 0.289313504731
2002/08/22/big/img_612
1
4 32 217 217 0.147148954493
2002/08/28/big/img_19471
3
131 42 53 53 0.191883500226
121 102 84 84 0.372025709902
250 191 24 24 0.0307550526661
2002/08/02/big/img_198
0
2003/01/16/big/img_527
1
84 84 81 81 0.495284953955
2002/08/22/big/img_209
1
75 71 163 163 0.421685952559
2002/08/30/big/img_18205
1
80 79 112 112 0.368836302622
2003/01/14/big/img_114
1
26 84 204 204 0.388886057536
2003/01/14/big/img_1028
2
106 160 70 70 0.338375355018
98 396 54 54 0.0158494967996
2003/01/16/big/img_894
1
80 50 107 107 0.0971322107565
2003/01/14/big/img_837
1
9 80 195 195 0.220226409059
2002/07/30/big/img_9
2
275 54 65 65 0.120720609982
129 59 75 75 0.376465201899
2002/08/06/big/img_2821
2
43 62 247 247 0.535512652525
212 393 54 54 -0.0189700983057
2002/08/04/big/img_85
3
99 39 84 84 0.291424907005
199 244 42 42 0.217823953586
220 392 54 54 -0.0782718460803
2003/01/13/big/img_884
0
2002/07/22/big/img_570
2
39 87 196 196 0.366220150312
39 328 74 74 -0.0617485452705
2002/08/07/big/img_1773
1
114 42 108 108 0.296630503604
2002/07/26/big/img_208
1
190 37 78 78 0.509709406618
2003/01/17/big/img_946
1
72 70 132 132 0.432498352297
2002/07/19/big/img_930
1
31 118 235 235 0.218728299855
2003/01/01/big/img_698
1
176 24 80 80 0.236031455043
2003/01/17/big/img_612
2
139 18 108 108 0.0841667045577
148 55 120 120 0.414659702915
2002/07/19/big/img_372
1
138 57 74 74 0.382223355951
2002/07/30/big/img_721
2
235 129 59 59 0.163450156114
34 91 99 99 0.240352957332
2003/01/14/big/img_649
1
164 32 211 211 0.226972002335
2002/08/19/big/img_4
1
93 201 189 189 0.393320050935
2002/07/25/big/img_1024
1
73 89 207 207 0.640746104537
2003/01/15/big/img_601
2
221 96 71 71 0.123856654923
165 98 67 67 0.165505207839
2002/08/30/big/img_18470
1
8 84 250 250 0.401057146312
2002/07/22/big/img_29
3
258 103 26 26 0.174475099213
95 52 75 75 0.314605416177
248 340 26 26 0.184546102674
2002/08/07/big/img_1686
2
52 108 191 191 0.346159357225
4 19 224 224 0.00379495366651
2002/07/20/big/img_294
2
322 17 54 54 0.0772569496388
168 54 81 81 -0.0609733424557
2002/08/14/big/img_800
3
177 51 142 142 0.261034401724
1 128 29 29 -0.0235876492312
55 238 31 31 0.0350258055347
2002/08/19/big/img_353
5
154 42 114 114 0.629736405503
23 44 96 96 0.466729000988
302 46 109 109 0.512519147337
23 234 121 121 0.477960404876
153 229 118 118 0.479666053303
2002/08/19/big/img_350
5
170 34 99 99 0.41749180285
13 34 111 111 0.459494252078
310 44 111 111 0.363361905428
21 237 100 100 0.256752652553
166 218 122 122 0.409513551783
2002/08/05/big/img_3392
3
13 62 62 62 -0.0295036470896
252 43 109 109 0.172257656205
85 61 192 192 0.314627559445
2002/08/09/big/img_622
1
26 61 191 191 0.233070152751
2003/01/15/big/img_236
3
196 0 122 122 0.199166353451
99 40 102 102 0.31214100846
189 50 109 109 0.308174003413
2002/08/11/big/img_643
1
236 54 120 120 0.381889254408
2002/08/05/big/img_3458
2
220 13 40 40 -0.132636450502
112 104 117 117 0.447093103905
2002/08/12/big/img_413
3
23 141 61 61 -0.0264836951654
103 63 148 148 0.310508704645
52 19 99 99 -0.0453072462842
2002/08/22/big/img_415
1
247 58 143 143 0.539631506157
2002/08/13/big/img_635
3
147 124 122 122 0.00516830557317
63 103 160 160 0.175357906529
179 275 31 31 -0.0279100460029
2002/08/07/big/img_1198
2
38 86 232 232 0.395746457399
72 298 149 149 0.0922393548739
2002/08/04/big/img_873
1
58 188 142 142 0.247975499986
2002/08/12/big/img_407
1
160 44 132 132 0.304976208354
2003/01/15/big/img_346
1
179 166 177 177 0.400526003292
2002/08/02/big/img_275
0
2002/08/17/big/img_997
2
102 65 113 113 0.618253053905
121 198 78 78 0.0758526532416
2002/08/21/big/img_958
1
59 50 123 123 0.302228651973
2002/08/20/big/img_579
1
64 97 243 243 0.353211548534
2002/07/29/big/img_142
3
330 36 71 71 0.263745051614
30 69 84 84 0.415510058036
171 97 68 68 0.342189550723
2003/01/14/big/img_1115
1
112 197 100 100 0.474028350713
2002/08/16/big/img_365
0
2002/07/29/big/img_1414
1
55 69 199 199 0.200161053482
2002/08/17/big/img_489
0
2002/08/13/big/img_1010
2
177 60 104 104 0.494637355997
102 45 94 94 0.0848838478239
2002/07/31/big/img_276
2
228 107 66 66 0.454119058207
204 166 81 81 0.0686502001452
2002/07/25/big/img_1000
1
165 51 91 91 0.403539155269
2002/08/23/big/img_524
4
71 50 106 106 0.278815004503
214 50 103 103 0.34741090012
346 52 81 81 0.0998933025257
235 170 74 74 -0.0969387454155
2002/08/28/big/img_19147
2
154 46 105 105 0.478754948228
166 265 29 29 0.0960833577061
2003/01/13/big/img_433
2
244 16 85 85 0.0603474492236
72 30 110 110 0.379449750329
2002/08/20/big/img_205
1
250 206 32 32 0.0336429024901
2003/01/01/big/img_458
1
92 109 172 172 0.486418951518
2002/07/29/big/img_1449
1
39 106 167 167 0.326616749153
2003/01/16/big/img_696
4
37 33 77 77 0.378409855985
113 80 85 85 0.197186500256
242 223 24 24 0.0473978041642
60 228 29 29 0.00624390292505
2002/08/28/big/img_19296
3
299 57 105 105 0.398853398472
71 31 124 124 0.38551825805
140 235 81 81 -0.037782248357
2002/08/29/big/img_18688
1
162 63 101 101 0.314023606895
2002/08/21/big/img_767
1
70 33 114 114 0.481470552282
2002/08/20/big/img_532
1
218 31 88 88 0.241173855535
2002/08/26/big/img_187
3
164 41 121 121 0.264812852218
284 159 52 52 0.00884175453975
312 258 54 54 0.0830351015757
2002/07/26/big/img_183
2
68 53 141 141 0.210807211354
271 92 97 97 0.29076304578
2002/07/27/big/img_890
2
58 19 58 58 0.221626604811
157 57 70 70 0.254223555487
2003/01/13/big/img_576
1
44 113 183 183 0.438883497423
2002/07/30/big/img_15
1
185 47 76 76 0.603699255743
2002/07/31/big/img_889
2
240 55 66 66 0.220030405521
168 204 120 120 0.377696557957
2002/08/31/big/img_17759
3
160 46 74 74 0.222528855427
64 139 131 131 -0.0530356465635
142 138 136 136 0.136113854774
2003/01/14/big/img_1114
1
134 39 116 116 0.428141154262
2002/07/19/big/img_445
1
77 86 100 100 0.183183541644
2002/08/03/big/img_593
1
203 70 112 112 0.249979198046
2002/07/24/big/img_750
1
88 52 221 221 0.45344670318
2002/07/30/big/img_133
5
66 45 41 41 0.0337691014603
288 28 56 56 0.0722652536148
46 66 70 70 0.161769051425
253 22 76 76 0.142222957578
198 81 76 76 0.377477150687
2002/08/25/big/img_671
3
69 94 54 54 -0.0554151481279
110 44 105 105 0.429870604162
167 158 144 144 0.149977056644
2002/07/20/big/img_351
1
128 90 103 103 0.423754054814
2002/08/31/big/img_17276
1
75 65 109 109 0.265987802434
2002/08/05/big/img_3231
2
111 55 182 182 0.356066205606
161 340 54 54 0.178422703478
2002/09/02/big/img_15882
2
43 48 194 194 0.378331959489
112 365 54 54 -0.0182150944282
2002/08/14/big/img_115
1
99 58 75 75 0.3470531509
2002/08/02/big/img_1148
1
102 78 173 173 0.431532652467
2002/07/25/big/img_936
2
185 17 82 82 0.156393305497
91 211 134 134 0.309970003992
2002/07/31/big/img_639
4
208 63 69 69 0.362205857909
278 116 49 49 0.0920800065331
209 159 26 26 0.0164560494857
302 90 66 66 0.044832452244
2002/08/04/big/img_427
2
82 116 70 70 0.303275848759
251 126 77 77 0.256327451472
2002/08/22/big/img_843
1
94 49 112 112 0.312534056357
2003/01/17/big/img_17
1
47 90 216 216 0.597297003967
2003/01/13/big/img_690
1
227 64 138 138 0.457256201477
2002/08/13/big/img_472
3
56 64 247 247 0.342896007904
272 72 138 138 0.229619106732
280 131 110 110 0.197734553248
2002/08/09/big/img_425
2
114 101 113 113 0.476099848721
190 253 99 99 -0.0170748990757
2002/08/05/big/img_3450
2
187 27 117 117 0.44246855719
67 123 77 77 0.178855205185
2003/01/17/big/img_439
2
109 82 86 86 0.350305502018
81 311 72 72 0.141434252608
2002/08/13/big/img_539
3
158 31 114 114 0.0551903992513
204 54 75 75 0.183987558421
317 67 74 74 0.375732253861
2002/07/28/big/img_35
1
115 55 134 134 0.487847256096
2002/08/16/big/img_241
1
48 110 223 223 0.303881703757
2002/08/06/big/img_2898
2
35 113 204 204 0.280816403098
178 374 62 62 0.00903570147639
2003/01/16/big/img_429
2
176 75 140 140 0.491632051449
103 213 50 50 0.113185998934
2002/08/05/big/img_3817
1
108 49 110 110 0.447752499345
2002/08/27/big/img_19919
5
42 34 82 82 0.457549205137
192 56 74 74 0.543173202401
338 45 79 79 0.452580755539
211 171 59 59 0.129251356874
4 124 49 49 0.00885735796473
2002/07/19/big/img_422
1
265 65 164 164 0.234952605909
2002/08/15/big/img_560
4
2 21 99 99 0.212070657706
91 70 99 99 0.119815646202
260 144 99 99 0.126831754562
146 124 149 149 0.0946991534176
2002/07/23/big/img_750
1
51 120 221 221 0.199788449737
2002/07/30/big/img_353
2
68 102 152 152 0.417139106995
134 344 36 36 0.199484601218
2002/08/05/big/img_43
1
63 78 168 168 0.4180066489
2002/08/23/big/img_305
1
151 62 108 108 0.253473606653
2002/08/01/big/img_2137
2
93 74 113 113 0.382088894906
110 194 101 101 0.211645704458
2002/08/30/big/img_18097
1
122 46 81 81 0.118176852824
2002/08/01/big/img_1389
5
286 189 43 43 0.322004505209
278 311 29 29 0.0461914532556
162 187 81 81 0.273172851335
294 326 39 39 0.188840359653
22 267 94 94 0.4955340513
2002/08/02/big/img_308
2
206 180 28 28 0.0593240600167
117 147 82 82 0.47141755762
2003/01/14/big/img_652
3
199 83 54 54 0.100017355679
112 59 95 95 0.166372355339
234 81 81 81 0.121268604699
2002/08/01/big/img_1798
3
106 150 59 59 0.002369106267
270 121 95 95 0.544608053294
278 194 81 81 -0.117705150423
2003/01/14/big/img_732
2
268 128 26 26 -0.0509580017562
95 34 98 98 0.326090352421
2003/01/16/big/img_294
2
161 38 73 73 0.282809359935
47 58 75 75 0.130397953765
2002/08/26/big/img_213
1
110 132 86 86 0.323032000122
2002/07/24/big/img_842
2
60 63 194 194 0.400112307139
76 248 158 158 0.0912188530143
2003/01/13/big/img_630
1
103 110 149 149 0.466563605095
2003/01/13/big/img_634
2
208 110 103 103 0.367732504598
172 229 32 32 -0.0329408943275
2002/08/06/big/img_2285
1
66 98 172 172 0.418981601342
2002/08/01/big/img_2162
5
174 69 82 82 0.431016411024
316 97 110 110 0.124098656332
343 173 66 66 -0.00245524412312
315 256 54 54 -0.0932420477766
350 299 76 76 -0.00893994604994
2002/08/30/big/img_18134
3
129 32 100 100 0.377833411115
209 132 99 99 0.0986610998138
254 219 36 36 -0.0102321011567
2002/08/02/big/img_1045
1
149 62 106 106 0.226456949973
2002/08/01/big/img_2143
4
172 58 133 133 0.102545262704
327 75 76 76 0.195536900856
30 77 94 94 0.326272250744
166 194 122 122 0.320677150172
2002/07/25/big/img_135
2
214 48 110 110 -0.0965034939611
44 117 222 222 0.266172905031
2002/07/20/big/img_645
4
56 57 167 167 0.296065500184
188 93 97 97 0.220193204138
158 68 149 149 -0.0831522421358
188 264 122 122 0.0167826022778
2002/08/05/big/img_3666
9
1 31 24 24 0.229433556023
238 34 26 26 0.0503552524809
31 19 24 24 0.118844702307
363 46 24 24 -0.102783050601
142 59 28 28 0.098906756303
61 55 82 82 0.338144552911
188 93 58 58 0.298640010477
225 114 70 70 0.122715605874
68 234 66 66 0.206137295419
2002/08/14/big/img_523
2
145 28 75 75 0.311573004324
326 26 95 95 0.385092407602
2002/08/04/big/img_425
1
21 77 241 241 0.382720902175
2003/01/14/big/img_137
2
44 112 188 188 0.331833004506
126 319 99 99 -0.025563350282
2003/01/01/big/img_176
1
116 47 79 79 0.400570303548
2002/08/15/big/img_505
1
129 23 85 85 0.25403225956
2002/08/24/big/img_386
1
17 74 186 186 0.327214350013
2002/08/05/big/img_3187
2
148 36 86 86 0.105246252145
213 91 72 72 0.12309320613
2002/08/15/big/img_419
1
103 56 147 147 0.397778501414
2003/01/13/big/img_520
2
89 21 36 36 0.167237008616
163 40 85 85 0.42288065523
2002/08/04/big/img_444
2
155 147 57 57 0.029810354134
119 68 131 131 0.0847331069031
2002/08/26/big/img_483
2
249 77 128 128 0.322095708011
106 84 150 150 0.394263706956
2002/08/05/big/img_3449
1
14 101 208 208 0.10670525507
2002/08/30/big/img_18409
2
129 54 82 82 0.276762299446
226 170 81 81 0.103574001809
2002/08/28/big/img_19455
2
11 87 125 125 0.199190953255
159 78 158 158 0.196382203244
2002/08/27/big/img_20090
1
283 86 87 87 0.439503100081
2002/07/23/big/img_625
1
110 60 107 107 0.503030105142
2002/08/24/big/img_205
2
237 73 99 99 0.479509453426
290 243 81 81 0.115636649998
2002/08/08/big/img_938
1
30 98 241 241 0.461821700036
2003/01/13/big/img_527
2
16 60 145 145 0.342216957218
186 88 102 102 0.274125103332
2002/08/07/big/img_1712
1
67 60 143 143 0.548669658456
2002/07/24/big/img_801
1
214 38 139 139 0.366392752176
2002/08/09/big/img_579
2
172 117 90 90 0.101525398387
46 98 157 157 0.401547700565
2003/01/14/big/img_41
4
38 67 40 40 0.425517350977
81 38 90 90 0.396087400042
218 94 106 106 0.194868904361
108 189 66 66 0.105245550102
2003/01/15/big/img_1130
1
109 182 110 110 0.256615206305
2002/07/21/big/img_672
2
203 75 91 91 0.365924704619
290 418 26 26 -0.0279304489057
2002/08/07/big/img_1590
1
154 116 138 138 0.393252851741
2003/01/01/big/img_532
4
92 29 108 108 0.162522604244
191 84 65 65 0.231827294317
358 117 51 51 0.322706800207
270 123 100 100 0.20505454888
2002/08/02/big/img_529
1
51 62 249 249 0.148807949858
2002/08/05/big/img_3591
1
83 116 180 180 0.243138756376
2002/08/23/big/img_5
1
52 210 136 136 0.323814048426
2003/01/14/big/img_882
3
177 25 66 66 0.354489309629
83 71 72 72 0.227575407652
204 256 49 49 0.0517539539112
2002/08/28/big/img_19234
2
271 2 54 54 -0.118846004209
163 111 96 96 0.432748053173
2002/07/24/big/img_398
1
26 75 198 198 0.380380601107
2003/01/14/big/img_592
1
47 55 191 191 0.508867010049
2002/08/22/big/img_548
1
68 60 96 96 0.329025952591
2002/08/12/big/img_761
3
337 40 88 88 0.36710100015
155 42 102 102 0.486795902901
68 110 113 113 0.396804207686
2003/01/16/big/img_497
2
7 97 54 54 0.201518853594
20 88 66 66 0.00245566056983
2002/08/18/big/img_133
1
159 104 98 98 0.202324205654
2002/08/08/big/img_874
2
12 58 121 121 0.361775506099
199 67 110 110 0.332756102883
2002/07/19/big/img_247
1
80 75 132 132 0.423098350104
2002/08/15/big/img_170
2
136 45 218 218 0.593759751593
72 134 81 81 0.10834860238
2002/08/27/big/img_19679
1
118 134 114 114 0.273514056028
2002/08/20/big/img_246
2
72 48 104 104 0.246771003303
206 198 122 122 0.0164804483502
2002/08/24/big/img_358
1
99 47 101 101 0.30393660705
2002/07/29/big/img_599
1
94 119 195 195 0.327655155837
2002/08/01/big/img_1555
1
120 53 106 106 0.284408344972
2002/07/30/big/img_491
1
43 77 164 164 0.500051997436
2002/07/30/big/img_371
1
53 34 254 254 0.355699398523
2003/01/16/big/img_682
1
69 69 124 124 0.301015301372
2002/07/25/big/img_619
3
298 37 96 96 0.106217053565
179 53 89 89 0.202451502203
350 141 99 99 0.205828397567
2003/01/15/big/img_587
2
131 66 100 100 0.378817707658
20 168 66 66 0.132406702937
2002/08/02/big/img_1212
1
208 60 74 74 0.430368149088
2002/08/01/big/img_2152
2
245 38 84 84 0.408117702251
90 39 90 90 0.384295705109
2002/07/25/big/img_668
2
137 47 93 93 0.434486003648
123 341 52 52 -0.0518734947109
2003/01/16/big/img_574
4
74 8 81 81 0.0431385056785
102 96 123 123 0.446482751073
302 172 65 65 0.339341553152
315 226 60 60 -0.00978459764447
2002/08/28/big/img_19464
5
61 27 77 77 0.336610050077
366 86 70 70 0.325865252185
214 87 71 71 0.252612058152
201 173 52 52 -0.0137900989765
408 223 29 29 -0.0583440533461
2002/08/11/big/img_536
6
282 87 73 73 0.232910298332
52 125 66 66 0.25026540593
308 165 60 60 0.00176500202506
193 120 122 122 0.13992995256
170 282 41 41 0.108299154471
236 337 32 32 -0.0541966471734
2002/07/24/big/img_201
2
169 51 108 108 0.488668905251
307 82 110 110 -0.0494134506996
2002/08/05/big/img_3488
1
152 95 119 119 0.198676551899
2002/07/25/big/img_887
1
62 88 226 226 0.0337312538264
2002/07/22/big/img_789
0
2002/07/30/big/img_432
1
129 78 92 92 0.525162902763
2002/08/16/big/img_166
0
2002/09/01/big/img_16333
1
108 280 87 87 0.216112457027
